<svg id="Layer_1" data-name="Layer 1" xmlns="http://www.w3.org/2000/svg" width="13.9916" height="13.3805" viewBox="0 0 13.9916 13.3805">
  <defs>
    <style>
      .cls-1 {
        fill: #fff;
        stroke: #000;
        stroke-miterlimit: 10;
        stroke-width: 1.5px;
      }
    </style>
  </defs>
  <title>replay</title>
  <path class="cls-1" d="M20.6066,5.8593" transform="translate(-0.0084)"/>
  <path d="M7.31,0A6.6814,6.6814,0,0,0,2.8762,1.6809c-.0951.0842-.1757.1812-.2655.27L1.0838.4243A.23.23,0,0,0,.6909.5558L.01,5.823a.234.234,0,0,0,.2616.2615l5.2672-.68a.2307.2307,0,0,0,.1315-.3931L4.0548,3.3953c.0605-.06.1145-.1249.1784-.1815A4.6414,4.6414,0,1,1,2.8415,7.9579l-2.0421.276A6.6905,6.6905,0,1,0,7.31,0Z" transform="translate(-0.0084)"/>
</svg>
