<?xml version="1.0" encoding="UTF-8"?>
<svg width="120px" height="89px" viewBox="0 0 120 89" version="1.1" xmlns="http://www.w3.org/2000/svg" xmlns:xlink="http://www.w3.org/1999/xlink">
    <!-- Generator: Sketch 51.2 (57519) - http://www.bohemiancoding.com/sketch -->
    <title>ccc_logo</title>
    <desc>Created with Sketch.</desc>
    <defs>
        <polygon id="path-1" points="0 0.115471698 119.919538 0.115471698 119.919538 88.5849057 0 88.5849057"></polygon>
        <path d="M0.0574528302,3.26122642 C0.0574528302,5.27377358 1.42754717,6.69198113 3.32377358,6.69198113 C5.21886792,6.69198113 6.58981132,5.27377358 6.58981132,3.26122642 C6.58981132,1.38226415 5.02330189,0.0628301887 3.32377358,0.0628301887 C1.62424528,0.0628301887 0.0574528302,1.38226415 0.0574528302,3.26122642 M1.65509434,3.27 C1.65509434,2.41245283 2.40764151,1.62933962 3.32377358,1.62933962 C4.23877358,1.62933962 4.99160377,2.41245283 4.99160377,3.27 C4.99160377,4.34150943 4.23877358,5.12575472 3.32377358,5.12575472 C2.40764151,5.12575472 1.65509434,4.34150943 1.65509434,3.27" id="path-3"></path>
        <linearGradient x1="49.9989411%" y1="117.070255%" x2="49.9989411%" y2="-30.5187256%" id="linearGradient-5">
            <stop stop-color="#0B203E" offset="0%"></stop>
            <stop stop-color="#0062A7" offset="100%"></stop>
        </linearGradient>
        <path d="M0.191037736,3.26122642 C0.191037736,5.27377358 1.56056604,6.69198113 3.45735849,6.69198113 C5.35188679,6.69198113 6.72283019,5.27377358 6.72283019,3.26122642 C6.72283019,1.38226415 5.15688679,0.0628301887 3.45735849,0.0628301887 C1.75783019,0.0628301887 0.191037736,1.38226415 0.191037736,3.26122642 M1.78811321,3.27 C1.78811321,2.41245283 2.54066038,1.62933962 3.45735849,1.62933962 C4.37235849,1.62933962 5.12518868,2.41245283 5.12518868,3.27 C5.12518868,4.34150943 4.37235849,5.12575472 3.45735849,5.12575472 C2.54066038,5.12575472 1.78811321,4.34150943 1.78811321,3.27" id="path-6"></path>
        <linearGradient x1="49.9988448%" y1="117.070255%" x2="49.9988448%" y2="-30.5187256%" id="linearGradient-8">
            <stop stop-color="#0B203E" offset="0%"></stop>
            <stop stop-color="#0062A7" offset="100%"></stop>
        </linearGradient>
        <path d="M0.145188679,3.24084906 C0.145188679,5.25141509 1.54669811,6.67132075 3.48481132,6.67132075 C4.1654717,6.67132075 4.77990566,6.49641509 5.29103774,6.18169811 L4.4354717,4.79858491 C4.16349057,4.99330189 3.83603774,5.1045283 3.48481132,5.1045283 C2.54745283,5.1045283 1.77820755,4.32056604 1.77820755,3.24849057 C1.77820755,2.39066038 2.54745283,1.60867925 3.48481132,1.60867925 C3.84962264,1.60867925 4.18811321,1.72669811 4.46603774,1.92226415 L5.4540566,0.655754717 C4.88830189,0.263773585 4.19858491,0.0418867925 3.48481132,0.0418867925 C1.74622642,0.0418867925 0.145188679,1.36018868 0.145188679,3.24084906" id="path-9"></path>
        <linearGradient x1="50.0005806%" y1="117.390651%" x2="50.0005806%" y2="-30.2010844%" id="linearGradient-11">
            <stop stop-color="#0B203E" offset="0%"></stop>
            <stop stop-color="#0062A7" offset="100%"></stop>
        </linearGradient>
        <path d="M0.281603774,3.24084906 C0.281603774,5.25141509 1.68339623,6.67132075 3.6209434,6.67132075 C4.30160377,6.67132075 4.91632075,6.49641509 5.42773585,6.18169811 L4.57160377,4.79858491 C4.29990566,4.99330189 3.97216981,5.1045283 3.6209434,5.1045283 C2.68386792,5.1045283 1.91433962,4.32056604 1.91433962,3.24849057 C1.91433962,2.39066038 2.68386792,1.60867925 3.6209434,1.60867925 C3.98632075,1.60867925 4.3245283,1.72669811 4.60273585,1.92226415 L5.5904717,0.655754717 C5.02443396,0.263773585 4.33443396,0.0418867925 3.6209434,0.0418867925 C1.88264151,0.0418867925 0.281603774,1.36018868 0.281603774,3.24084906" id="path-12"></path>
        <linearGradient x1="50.0011009%" y1="117.390651%" x2="50.0011009%" y2="-30.2010844%" id="linearGradient-14">
            <stop stop-color="#0B203E" offset="0%"></stop>
            <stop stop-color="#0062A7" offset="100%"></stop>
        </linearGradient>
        <path d="M0.180283019,3.24084906 C0.180283019,5.25141509 1.58207547,6.67132075 3.52018868,6.67132075 C4.20141509,6.67132075 4.815,6.49641509 5.32641509,6.18169811 L4.47141509,4.79858491 C4.19943396,4.99330189 3.87198113,5.1045283 3.52018868,5.1045283 C2.58339623,5.1045283 1.81386792,4.32056604 1.81386792,3.24849057 C1.81386792,2.39066038 2.58339623,1.60867925 3.52018868,1.60867925 C3.885,1.60867925 4.22320755,1.72669811 4.50113208,1.92226415 L5.48886792,0.655754717 C4.92396226,0.263773585 4.23311321,0.0418867925 3.52018868,0.0418867925 C1.78132075,0.0418867925 0.180283019,1.36018868 0.180283019,3.24084906" id="path-15"></path>
        <linearGradient x1="50.0032697%" y1="117.390651%" x2="50.0032697%" y2="-30.2010844%" id="linearGradient-17">
            <stop stop-color="#0B203E" offset="0%"></stop>
            <stop stop-color="#0062A7" offset="100%"></stop>
        </linearGradient>
        <polygon id="path-18" points="0.235188679 0.268301887 0.235188679 6.48566038 3.68660377 6.48566038 3.68660377 5.11613208 1.8045283 5.11613208 1.8045283 0.268301887"></polygon>
        <linearGradient x1="49.9959738%" y1="121.517895%" x2="49.9959738%" y2="-35.8516342%" id="linearGradient-20">
            <stop stop-color="#0B203E" offset="0%"></stop>
            <stop stop-color="#0062A7" offset="100%"></stop>
        </linearGradient>
        <polygon id="path-21" points="0.0396226415 0.268301887 0.0396226415 6.48566038 3.49216981 6.48566038 3.49216981 5.11613208 1.61009434 5.11613208 1.61009434 0.268301887"></polygon>
        <linearGradient x1="50.0005787%" y1="121.517895%" x2="50.0005787%" y2="-35.8516342%" id="linearGradient-23">
            <stop stop-color="#0B203E" offset="0%"></stop>
            <stop stop-color="#0062A7" offset="100%"></stop>
        </linearGradient>
        <path d="M0.204056604,3.41009434 C0.204056604,5.36349057 1.52575472,6.69198113 3.42424528,6.69198113 C4.43377358,6.69198113 5.32330189,6.32066038 5.9159434,5.47075472 C6.45198113,4.69669811 6.51679245,3.92122642 6.53264151,3.01443396 L3.41632075,3.01443396 L3.41632075,4.28377358 L4.69839623,4.28377358 C4.63358491,5.00122642 4.11311321,5.36349057 3.43216981,5.36349057 C2.39915094,5.36349057 1.83792453,4.38311321 1.83792453,3.41830189 C1.83792453,2.4704717 2.37537736,1.45528302 3.40754717,1.45528302 C4.04037736,1.45528302 4.49858491,1.85150943 4.71396226,2.44528302 L6.20377358,1.80198113 C5.68301887,0.63990566 4.72301887,0.0628301887 3.48,0.0628301887 C1.53339623,0.0628301887 0.204056604,1.39018868 0.204056604,3.41009434" id="path-24"></path>
        <linearGradient x1="50.0007026%" y1="117.070255%" x2="50.0007026%" y2="-30.5187256%" id="linearGradient-26">
            <stop stop-color="#0B203E" offset="0%"></stop>
            <stop stop-color="#0062A7" offset="100%"></stop>
        </linearGradient>
        <linearGradient x1="50.0023009%" y1="121.517895%" x2="50.0023009%" y2="-35.8516342%" id="linearGradient-27">
            <stop stop-color="#0B203E" offset="0%"></stop>
            <stop stop-color="#0062A7" offset="100%"></stop>
        </linearGradient>
        <path d="M2.29132075,0.268301887 L0.109245283,6.48566038 L1.67603774,6.48566038 L2.06603774,5.40537736 L4.09896226,5.40537736 L4.46632075,6.48566038 L6.0404717,6.48566038 L3.90226415,0.268301887 L2.29132075,0.268301887 Z M3.08235849,2.19 L3.09735849,2.19 L3.69990566,4.16858491 L2.47273585,4.16858491 L3.08235849,2.19 Z" id="path-28"></path>
        <linearGradient x1="50.0000095%" y1="121.517895%" x2="50.0000095%" y2="-35.8516342%" id="linearGradient-30">
            <stop stop-color="#0B203E" offset="0%"></stop>
            <stop stop-color="#0062A7" offset="100%"></stop>
        </linearGradient>
        <polygon id="path-31" points="0.230377358 0.268301887 0.230377358 1.63726415 1.52886792 1.63726415 1.52886792 6.48566038 3.09820755 6.48566038 3.09820755 1.63726415 4.39641509 1.63726415 4.39641509 0.268301887"></polygon>
        <linearGradient x1="50.0020455%" y1="121.517895%" x2="50.0020455%" y2="-35.8516342%" id="linearGradient-33">
            <stop stop-color="#0B203E" offset="0%"></stop>
            <stop stop-color="#0062A7" offset="100%"></stop>
        </linearGradient>
        <polygon id="path-34" points="0.180566038 0.268301887 0.180566038 6.48566038 1.75132075 6.48566038 1.75132075 4.0440566 3.47235849 4.0440566 3.47235849 2.67679245 1.75132075 2.67679245 1.75132075 1.63726415 3.6495283 1.63726415 3.6495283 0.268301887"></polygon>
        <linearGradient x1="50.0018243%" y1="121.517895%" x2="50.0018243%" y2="-35.8516342%" id="linearGradient-36">
            <stop stop-color="#0B203E" offset="0%"></stop>
            <stop stop-color="#0062A7" offset="100%"></stop>
        </linearGradient>
        <path d="M0.24509434,0.268301887 L0.24509434,6.48566038 L1.81443396,6.48566038 L1.81443396,4.09443396 L1.83028302,4.09443396 L3.31216981,6.48566038 L5.26669811,6.48566038 L3.36792453,3.93707547 C4.2254717,3.78141509 4.69018868,3.0390566 4.69018868,2.18150943 C4.69018868,0.854150943 3.78566038,0.268301887 2.59160377,0.268301887 L0.24509434,0.268301887 Z M1.81443396,1.50537736 L1.96726415,1.50537736 C2.47924528,1.50537736 3.05632075,1.60471698 3.05632075,2.28056604 C3.05632075,2.95613208 2.47924528,3.0554717 1.96726415,3.0554717 L1.81443396,3.0554717 L1.81443396,1.50537736 Z" id="path-37"></path>
        <linearGradient x1="50.0021671%" y1="121.517895%" x2="50.0021671%" y2="-35.8516342%" id="linearGradient-39">
            <stop stop-color="#0B203E" offset="0%"></stop>
            <stop stop-color="#0062A7" offset="100%"></stop>
        </linearGradient>
        <polygon id="path-40" points="0.123962264 0.268301887 0.123962264 6.48566038 4.12613208 6.48566038 4.12613208 5.11613208 1.95169811 5.11613208 1.95169811 4.0440566 4.0140566 4.0440566 4.0140566 2.67679245 1.95169811 2.67679245 1.95169811 1.63726415 4.12613208 1.63726415 4.12613208 0.268301887"></polygon>
        <linearGradient x1="50.0001018%" y1="121.517895%" x2="50.0001018%" y2="-35.8516342%" id="linearGradient-42">
            <stop stop-color="#0B203E" offset="0%"></stop>
            <stop stop-color="#0062A7" offset="100%"></stop>
        </linearGradient>
        <polygon id="path-43" points="0.0288679245 0.268301887 0.0288679245 6.48566038 4.03245283 6.48566038 4.03245283 5.11613208 1.85745283 5.11613208 1.85745283 4.0440566 3.92037736 4.0440566 3.92037736 2.67679245 1.85745283 2.67679245 1.85745283 1.63726415 4.03245283 1.63726415 4.03245283 0.268301887"></polygon>
        <linearGradient x1="50.0022869%" y1="99.9979611%" x2="50.0022869%" y2="-0.00174572105%" id="linearGradient-45">
            <stop stop-color="#0B203E" offset="0%"></stop>
            <stop stop-color="#0062A7" offset="100%"></stop>
        </linearGradient>
        <polygon id="path-46" points="0.254716981 0.268301887 0.254716981 6.48566038 4.25716981 6.48566038 4.25716981 5.11613208 2.08358491 5.11613208 2.08358491 4.0440566 4.14481132 4.0440566 4.14481132 2.67679245 2.08358491 2.67679245 2.08358491 1.63726415 4.25716981 1.63726415 4.25716981 0.268301887"></polygon>
        <linearGradient x1="49.9963902%" y1="121.517895%" x2="49.9963902%" y2="-35.8516342%" id="linearGradient-48">
            <stop stop-color="#0B203E" offset="0%"></stop>
            <stop stop-color="#0062A7" offset="100%"></stop>
        </linearGradient>
        <polygon id="path-49" points="0.233490566 0.268301887 0.233490566 6.48566038 4.23707547 6.48566038 4.23707547 5.11613208 2.06207547 5.11613208 2.06207547 4.0440566 4.125 4.0440566 4.125 2.67679245 2.06207547 2.67679245 2.06207547 1.63726415 4.23707547 1.63726415 4.23707547 0.268301887"></polygon>
        <linearGradient x1="50.0040633%" y1="121.517895%" x2="50.0040633%" y2="-35.8516342%" id="linearGradient-51">
            <stop stop-color="#0B203E" offset="0%"></stop>
            <stop stop-color="#0062A7" offset="100%"></stop>
        </linearGradient>
        <polygon id="path-52" points="0.127358491 0.268301887 0.127358491 6.48566038 4.12981132 6.48566038 4.12981132 5.11613208 1.9559434 5.11613208 1.9559434 4.0440566 4.01773585 4.0440566 4.01773585 2.67679245 1.9559434 2.67679245 1.9559434 1.63726415 4.12981132 1.63726415 4.12981132 0.268301887"></polygon>
        <linearGradient x1="49.9965733%" y1="121.517895%" x2="49.9965733%" y2="-35.8516342%" id="linearGradient-54">
            <stop stop-color="#0B203E" offset="0%"></stop>
            <stop stop-color="#0062A7" offset="100%"></stop>
        </linearGradient>
        <polygon id="path-55" points="4.15415094 0.268301887 4.15415094 4.06924528 4.13943396 4.06924528 1.50169811 0.268301887 0.0602830189 0.268301887 0.0602830189 6.48566038 1.50169811 6.48566038 1.50169811 2.67679245 1.51584906 2.67679245 4.15415094 6.48566038 5.59415094 6.48566038 5.59415094 0.268301887"></polygon>
        <linearGradient x1="50.002507%" y1="121.517895%" x2="50.002507%" y2="-35.8516342%" id="linearGradient-57">
            <stop stop-color="#0B203E" offset="0%"></stop>
            <stop stop-color="#0062A7" offset="100%"></stop>
        </linearGradient>
        <polygon id="path-58" points="4.30698113 0.268301887 4.30698113 4.06924528 4.29311321 4.06924528 1.6545283 0.268301887 0.213962264 0.268301887 0.213962264 6.48566038 1.6545283 6.48566038 1.6545283 2.67679245 1.66867925 2.67679245 4.30698113 6.48566038 5.74754717 6.48566038 5.74754717 0.268301887"></polygon>
        <linearGradient x1="50.0005345%" y1="121.517895%" x2="50.0005345%" y2="-35.8516342%" id="linearGradient-60">
            <stop stop-color="#0B203E" offset="0%"></stop>
            <stop stop-color="#0062A7" offset="100%"></stop>
        </linearGradient>
        <path d="M0.0687735849,15.6192453 C0.0687735849,24.194717 10.4561321,31.1453774 23.2709434,31.1453774 C28.0783019,31.1453774 32.5432075,30.1689623 36.2462264,28.4937736 L28.4833019,20.0374528 C27.0512264,20.7948113 25.2393396,21.2473585 23.2709434,21.2473585 C18.6280189,21.2473585 14.8618868,18.7270755 14.8618868,15.6192453 C14.8618868,12.51 18.6280189,9.99028302 23.2709434,9.99028302 C25.8976415,9.99028302 28.245283,10.7963208 29.7868868,12.0574528 L36.0113208,2.63971698 C32.3530189,1.02849057 27.9772642,0.0914150943 23.2709434,0.0914150943 C10.4561321,0.0914150943 0.0687735849,7.0440566 0.0687735849,15.6192453" id="path-61"></path>
        <linearGradient x1="50.0000253%" y1="99.4203389%" x2="50.0000253%" y2="5.57970398%" id="linearGradient-63">
            <stop stop-color="#A22835" offset="0%"></stop>
            <stop stop-color="#ED3124" offset="100%"></stop>
        </linearGradient>
        <path d="M0.191037736,15.6192453 C0.191037736,24.194717 10.5783962,31.1453774 23.3926415,31.1453774 C28.2,31.1453774 32.6654717,30.1689623 36.3682075,28.4937736 L28.605283,20.0374528 C27.1726415,20.7948113 25.3613208,21.2473585 23.3926415,21.2473585 C18.75,21.2473585 14.9835849,18.7270755 14.9835849,15.6192453 C14.9835849,12.51 18.75,9.99028302 23.3926415,9.99028302 C26.0193396,9.99028302 28.3672642,10.7963208 29.9085849,12.0574528 L36.1327358,2.63971698 C32.474717,1.02849057 28.0989623,0.0914150943 23.3926415,0.0914150943 C10.5783962,0.0914150943 0.191037736,7.0440566 0.191037736,15.6192453" id="path-64"></path>
        <linearGradient x1="49.9996996%" y1="99.4203389%" x2="49.9996996%" y2="5.57970398%" id="linearGradient-66">
            <stop stop-color="#A22835" offset="0%"></stop>
            <stop stop-color="#ED3124" offset="100%"></stop>
        </linearGradient>
        <path d="M0.0851886792,15.6192453 C0.0851886792,24.194717 10.4725472,31.1453774 23.2867925,31.1453774 C28.094717,31.1453774 32.5596226,30.1689623 36.2623585,28.4937736 L28.499717,20.0374528 C27.0670755,20.7948113 25.2554717,21.2473585 23.2867925,21.2473585 C18.6441509,21.2473585 14.8780189,18.7270755 14.8780189,15.6192453 C14.8780189,12.51 18.6441509,9.99028302 23.2867925,9.99028302 C25.9134906,9.99028302 28.2611321,10.7963208 29.8027358,12.0574528 L36.0268868,2.63971698 C32.3691509,1.02849057 27.9933962,0.0914150943 23.2867925,0.0914150943 C10.4725472,0.0914150943 0.0851886792,7.0440566 0.0851886792,15.6192453" id="path-67"></path>
    </defs>
    <g id=".-home-." stroke="none" stroke-width="1" fill="none" fill-rule="evenodd">
        <g id="Desktop-(SIDEARM)" transform="translate(-252.000000, -10.000000)">
            <g id="--top--">
                <g id="ccc_logo" transform="translate(252.000000, 10.000000)">
                    <g id="Group-34" transform="translate(0.000000, 0.167547)">
                        <g id="Group-3">
                            <mask id="mask-2" fill="white">
                                <use xlink:href="#path-1"></use>
                            </mask>
                            <g id="Clip-2"></g>
                            <path d="M111.714821,0.115386792 L8.20434906,0.115386792 C3.68029245,0.115386792 -8.49056604e-05,3.79548113 -8.49056604e-05,8.31868868 L-8.49056604e-05,80.3795377 C-8.49056604e-05,84.9041604 3.68029245,88.5851038 8.20434906,88.5851038 L111.714821,88.5851038 C116.23916,88.5851038 119.919538,84.9041604 119.919538,80.3795377 L119.919538,8.31868868 C119.919538,3.79548113 116.23916,0.115386792 111.714821,0.115386792" id="Fill-1" fill="#0A203D" mask="url(#mask-2)"></path>
                        </g>
                        <path d="M1.56880189,8.41262264 C1.56880189,4.72375472 4.55861321,1.73366038 8.24861321,1.73366038 L111.759368,1.73366038 C115.449085,1.73366038 118.438896,4.72375472 118.438896,8.41262264 L118.438896,80.4731887 C118.438896,84.1617736 115.449085,87.1541321 111.759368,87.1541321 L8.24861321,87.1541321 C4.55861321,87.1541321 1.56880189,84.1617736 1.56880189,80.4731887 L1.56880189,8.41262264 Z" id="Fill-4" fill="#FEFEFE"></path>
                        <path d="M18.5745283,10.5686887 C17.8463208,10.287934 17.190283,10.1410472 16.335566,10.1410472 C13.6763208,10.1410472 11.8814151,11.5400094 11.8814151,13.3204811 C11.8814151,15.1295377 13.6998113,16.4385 16.4000943,16.4385 C17.0366038,16.4385 17.6736792,16.3419906 18.2632075,16.1704811 L20.1036792,18.7442547 C19.5260377,18.9333113 19.0146226,19.0354811 18.5020755,19.1246321 C17.7849057,19.2497264 17.1014151,19.3272736 16.3120755,19.3272736 C13.9867925,19.3272736 11.7721698,18.7196321 10.0443396,17.638783 C8.20698113,16.4993491 7.36301887,15.0072736 7.36301887,13.3046321 C7.36301887,11.7384057 8.22679245,10.2335943 9.82301887,9.10859434 C11.4631132,7.9530283 13.8311321,7.25142453 16.1801887,7.25142453 C17.5757547,7.25142453 18.8595283,7.46595283 20.144717,7.82878302 L18.5745283,10.5686887 Z" id="Fill-6" fill="#CED3D7"></path>
                        <path d="M64.1350189,10.5686887 C63.4068113,10.287934 62.7502075,10.1410472 61.8960566,10.1410472 C59.2370943,10.1410472 57.4416226,11.5400094 57.4416226,13.3204811 C57.4416226,15.1295377 59.2600189,16.4385 61.961434,16.4385 C62.5979434,16.4385 63.2338868,16.3419906 63.8236981,16.1704811 L65.6641698,18.7442547 C65.0862453,18.9333113 64.5753962,19.0354811 64.0631321,19.1246321 C63.3451132,19.2497264 62.6619057,19.3272736 61.872,19.3272736 C59.547283,19.3272736 57.3329434,18.7196321 55.6045472,17.638783 C53.7669057,16.4993491 52.9229434,15.0072736 52.9229434,13.3046321 C52.9229434,11.7384057 53.787566,10.2335943 55.3832264,9.10859434 C57.0230377,7.9530283 59.3919057,7.25142453 61.7406792,7.25142453 C63.1365283,7.25142453 64.4197358,7.46595283 65.7054906,7.82878302 L64.1350189,10.5686887 Z" id="Fill-8" fill="#CED3D7"></path>
                        <path d="M30.1122453,11.0999151 L30.0686604,11.0999151 L28.2734717,14.7497264 L31.8845094,14.7497264 L30.1122453,11.0999151 Z M27.0765849,17.0302925 L25.9252642,19.0224623 L21.3194151,19.0224623 L27.7430943,7.55793396 L32.4816792,7.55793396 L38.7743208,19.0224623 L34.1446981,19.0224623 L33.0584717,17.0302925 L27.0765849,17.0302925 Z" id="Fill-10" fill="#CED3D7"></path>
                        <path d="M49.294783,10.5063679 C48.4963868,10.0524057 47.4775189,9.74589623 46.413934,9.74589623 C45.6180849,9.74589623 44.555066,10.0654245 44.555066,10.7047642 C44.555066,11.3732547 45.7290283,11.632217 46.4818585,11.7994811 L47.5887453,12.0273113 C49.9154434,12.4996698 51.7078019,13.3045755 51.7078019,15.1611792 C51.7078019,16.3023113 51.3098774,17.4720283 49.9805377,18.248066 C48.6744057,19.0088208 46.9230849,19.327217 45.2396887,19.327217 C43.1374245,19.327217 41.0767642,18.8395755 39.3718585,18.0176887 L41.2315755,15.6165566 C42.3172358,16.2689151 43.6021415,16.8038208 45.0845943,16.8038208 C46.1040283,16.8038208 47.1902547,16.4517453 47.1902547,15.6482547 C47.1902547,14.8105189 45.484217,14.5218396 44.555066,14.3392925 C41.8281792,13.808066 40.0349717,13.3204245 40.0349717,11.0998585 C40.0349717,8.77316038 42.4494057,7.25165094 45.7944057,7.25165094 C47.4775189,7.25165094 49.5384623,7.6170283 51.0231792,8.19410377 L49.294783,10.5063679 Z" id="Fill-12" fill="#CED3D7"></path>
                        <path d="M75.6763302,11.0999151 L75.6321792,11.0999151 L73.8367075,14.7497264 L77.4471792,14.7497264 L75.6763302,11.0999151 Z M72.6426509,17.0302925 L71.488217,19.0224623 L66.882934,19.0224623 L73.303783,7.55793396 L78.0449151,7.55793396 L84.3378396,19.0224623 L79.708217,19.0224623 L78.6214245,17.0302925 L72.6426509,17.0302925 Z" id="Fill-14" fill="#CED3D7"></path>
                        <path d="M90.0304245,16.4993774 L91.0023113,16.4993774 C93.5941981,16.4993774 95.8105189,15.5240943 95.8105189,13.2896604 C95.8105189,11.2369245 93.8398585,10.0813585 91.0495755,10.0813585 L90.0304245,10.0813585 L90.0304245,16.4993774 Z M85.6875,7.55796226 L91.8462736,7.55796226 C96.4959906,7.55796226 100.328915,10.0655094 100.328915,13.2896604 C100.328915,16.5152264 96.4750472,19.0224906 91.8462736,19.0224906 L85.6875,19.0224906 L85.6875,7.55796226 Z" id="Fill-16" fill="#CED3D7"></path>
                        <polygon id="Fill-18" fill="#CED3D7" points="106.685972 10.0814434 106.685972 11.9980472 113.605783 11.9980472 113.605783 14.5220094 106.685972 14.5220094 106.685972 16.4994623 113.872387 16.4994623 113.872387 19.0222925 102.343613 19.0222925 102.343613 7.55804717 113.872387 7.55804717 113.872387 10.0814434"></polygon>
                        <path d="M14.9389528,9.2115 C15.7101792,9.2115 16.3325377,9.32980189 17.0873491,9.62131132 L17.2885755,9.69857547 L17.3955566,9.51206604 L18.9654623,6.77357547 L19.1253679,6.49480189 L18.8160283,6.40734906 C17.3992358,6.00716038 16.1174434,5.82065094 14.7832925,5.82065094 C12.4016887,5.82065094 9.97112264,6.53131132 8.28178302,7.72112264 C6.62753774,8.88970755 5.71621698,10.4531038 5.71621698,12.1243302 C5.71621698,13.9897075 6.65838679,15.5194245 8.51612264,16.6713113 C10.2960283,17.7830094 12.5692358,18.3957453 14.9151792,18.3957453 C15.6490472,18.3957453 16.3373491,18.3323491 17.1493302,18.1897075 C17.6415,18.1045189 18.1815,17.9989528 18.7854623,17.8016887 L19.1106509,17.6952736 L18.9114057,17.4173491 L17.0703679,14.8435755 L16.966783,14.6981038 L16.7961226,14.7484811 C16.2224434,14.9165943 15.6029151,15.0054623 15.0040472,15.0054623 C12.4916887,15.0054623 10.7355566,13.8275377 10.7355566,12.1401792 C10.7355566,10.4431981 12.5038585,9.2115 14.9389528,9.2115" id="Fill-20" fill="#D03847"></path>
                        <path d="M60.4989057,9.2115 C61.2706981,9.2115 61.8927736,9.32980189 62.6481509,9.62131132 L62.8490943,9.69857547 L62.9557925,9.51206604 L64.5265472,6.77357547 L64.6867358,6.49480189 L64.3771132,6.40734906 C62.9600377,6.00716038 61.6782453,5.82065094 60.3440943,5.82065094 C57.9624906,5.82065094 55.5316415,6.53131132 53.8423019,7.72112264 C52.1874906,8.88970755 51.2767358,10.4531038 51.2767358,12.1243302 C51.2767358,13.9902736 52.2189057,15.5197075 54.0769245,16.6713113 C55.8562642,17.7830094 58.1294717,18.3957453 60.4759811,18.3957453 C61.208717,18.3957453 61.8973019,18.3323491 62.709566,18.1897075 C63.2028679,18.1042358 63.7428679,17.9986698 64.3459811,17.8016887 L64.6711698,17.6952736 L64.4722075,17.4173491 L62.6308868,14.8435755 L62.5273019,14.6981038 L62.3563585,14.7484811 C61.7826792,14.9165943 61.163434,15.0054623 60.5648491,15.0054623 C58.0516415,15.0054623 56.2955094,13.8275377 56.2955094,12.1401792 C56.2955094,10.4431981 58.0638113,9.2115 60.4989057,9.2115" id="Fill-22" fill="#C81F41"></path>
                        <path d="M30.0873679,13.3191509 L27.2795377,13.3191509 L28.6926509,10.4450943 L30.0873679,13.3191509 Z M31.3051981,6.25528302 L31.2338774,6.12509434 L31.0850094,6.12509434 L26.3461415,6.12509434 L26.1992547,6.12509434 L26.1273679,6.25330189 L19.7036887,17.7195283 L19.4945377,18.0928302 L19.9221792,18.0928302 L24.5283113,18.0928302 L24.672934,18.0928302 L24.7453868,17.9677358 L25.8251038,16.1006604 L31.512934,16.1006604 L32.5284057,17.9620755 L32.5997264,18.0928302 L32.7483113,18.0928302 L37.3776509,18.0928302 L37.8013302,18.0928302 L37.5975566,17.7215094 L31.3051981,6.25528302 Z" id="Fill-24" fill="#D03847"></path>
                        <path d="M46.2412642,10.5992547 C46.2418302,10.5992547 45.1352264,10.3736887 45.1352264,10.3736887 C45.1397547,10.3751038 45.114283,10.3694434 45.114283,10.3694434 C44.5179623,10.2347264 43.4085283,9.98453774 43.4085283,9.52434906 C43.4085283,9.11906604 44.2578679,8.81651887 45.0172075,8.81651887 C45.9729623,8.81651887 46.9519245,9.07491509 47.7740943,9.54387736 L47.9668302,9.6539717 L48.099,9.47595283 L49.8273962,7.16170755 L50.0240943,6.89821698 L49.7173019,6.77821698 C48.2215472,6.19661321 46.133717,5.82048113 44.3976792,5.82048113 C40.8593774,5.82048113 38.3886226,7.50614151 38.3886226,9.92000943 C38.3886226,12.3047264 40.2576792,12.8469906 43.1102264,13.4028396 L43.2503208,13.4302925 C43.9943774,13.5746321 45.5427736,13.8754811 45.5427736,14.4664245 C45.5427736,15.0604811 44.6096604,15.3709528 43.6881509,15.3709528 C42.4706038,15.3709528 41.2516415,14.9948208 39.9636226,14.2213302 L39.7728679,14.1067075 L39.6364528,14.2830283 L37.7775849,16.6844434 L37.5876792,16.9289717 L37.8667358,17.0636887 C39.6480566,17.9223679 41.7704151,18.3955755 43.8429623,18.3955755 C45.7493774,18.3955755 47.4783396,18.0007642 48.7100377,17.2824623 C49.9391887,16.5667075 50.5621132,15.4558585 50.5621132,13.9807642 C50.5621132,11.7610472 48.2529623,11.007934 46.2412642,10.5992547" id="Fill-26" fill="#D03847"></path>
                        <path d="M75.6509151,13.3191509 L72.8428019,13.3191509 L74.2561981,10.4450943 L75.6509151,13.3191509 Z M76.8678962,6.25528302 L76.7965755,6.12509434 L76.6477075,6.12509434 L71.9077075,6.12509434 L71.7608208,6.12509434 L71.6886509,6.25330189 L65.2672358,17.7195283 L65.0580849,18.0928302 L65.4860094,18.0928302 L70.0921415,18.0928302 L70.2367642,18.0928302 L70.3095,17.9677358 L71.3903491,16.1006604 L77.0759151,16.1006604 L78.0922358,17.9620755 L78.1632736,18.0928302 L78.3115755,18.0928302 L82.9411981,18.0928302 L83.3648774,18.0928302 L83.1611038,17.7215094 L76.8678962,6.25528302 Z" id="Fill-28" fill="#C81F3F"></path>
                        <path d="M94.1634906,12.1077453 C94.1634906,14.8547264 90.675,15.0681226 89.6057547,15.0681226 L88.8846226,15.0681226 L88.8846226,9.14991509 L89.6527358,9.14991509 C92.4350943,9.14991509 94.1634906,10.2828396 94.1634906,12.1077453 M90.449434,6.12500943 L84.2906604,6.12500943 L84.0401887,6.12500943 L84.0401887,6.37548113 L84.0401887,17.8422736 L84.0401887,18.0927453 L84.2906604,18.0927453 L90.449434,18.0927453 C95.265,18.0927453 99.1828302,15.4077453 99.1828302,12.1077453 C99.1828302,8.75283962 95.3467925,6.12500943 90.449434,6.12500943" id="Fill-30" fill="#C81F41"></path>
                        <polygon id="Fill-32" fill="#C81F41" points="112.475434 6.12498113 100.947226 6.12498113 100.696189 6.12498113 100.696189 6.37545283 100.696189 17.8422453 100.696189 18.092717 100.947226 18.092717 112.475434 18.092717 112.725906 18.092717 112.725906 17.8422453 112.725906 15.3188491 112.725906 15.0683774 112.475434 15.0683774 105.540057 15.0683774 105.540057 13.5898868 112.209113 13.5898868 112.459302 13.5898868 112.459302 13.3394151 112.459302 10.8160189 112.459302 10.5655472 112.209113 10.5655472 105.540057 10.5655472 105.540057 9.14988679 112.475434 9.14988679 112.725906 9.14988679 112.725906 8.89941509 112.725906 6.37545283 112.725906 6.12498113"></polygon>
                    </g>
                    <g id="Group-37" transform="translate(11.037736, 76.016604)">
                        <mask id="mask-4" fill="white">
                            <use xlink:href="#path-3"></use>
                        </mask>
                        <g id="Clip-36"></g>
                        <path d="M0.0574528302,3.26122642 C0.0574528302,5.27377358 1.42754717,6.69198113 3.32377358,6.69198113 C5.21886792,6.69198113 6.58981132,5.27377358 6.58981132,3.26122642 C6.58981132,1.38226415 5.02330189,0.0628301887 3.32377358,0.0628301887 C1.62424528,0.0628301887 0.0574528302,1.38226415 0.0574528302,3.26122642 M1.65509434,3.27 C1.65509434,2.41245283 2.40764151,1.62933962 3.32377358,1.62933962 C4.23877358,1.62933962 4.99160377,2.41245283 4.99160377,3.27 C4.99160377,4.34150943 4.23877358,5.12575472 3.32377358,5.12575472 C2.40764151,5.12575472 1.65509434,4.34150943 1.65509434,3.27" id="Fill-35" fill="url(#linearGradient-5)" mask="url(#mask-4)"></path>
                    </g>
                    <g id="Group-40" transform="translate(63.679245, 76.016604)">
                        <mask id="mask-7" fill="white">
                            <use xlink:href="#path-6"></use>
                        </mask>
                        <g id="Clip-39"></g>
                        <path d="M0.191037736,3.26122642 C0.191037736,5.27377358 1.56056604,6.69198113 3.45735849,6.69198113 C5.35188679,6.69198113 6.72283019,5.27377358 6.72283019,3.26122642 C6.72283019,1.38226415 5.15688679,0.0628301887 3.45735849,0.0628301887 C1.75783019,0.0628301887 0.191037736,1.38226415 0.191037736,3.26122642 M1.78811321,3.27 C1.78811321,2.41245283 2.54066038,1.62933962 3.45735849,1.62933962 C4.37235849,1.62933962 5.12518868,2.41245283 5.12518868,3.27 C5.12518868,4.34150943 4.37235849,5.12575472 3.45735849,5.12575472 C2.54066038,5.12575472 1.78811321,4.34150943 1.78811321,3.27" id="Fill-38" fill="url(#linearGradient-8)" mask="url(#mask-7)"></path>
                    </g>
                    <g id="Group-43" transform="translate(5.660377, 76.016604)">
                        <mask id="mask-10" fill="white">
                            <use xlink:href="#path-9"></use>
                        </mask>
                        <g id="Clip-42"></g>
                        <path d="M0.145188679,3.24084906 C0.145188679,5.25141509 1.54669811,6.67132075 3.48481132,6.67132075 C4.1654717,6.67132075 4.77990566,6.49641509 5.29103774,6.18169811 L4.4354717,4.79858491 C4.16349057,4.99330189 3.83603774,5.1045283 3.48481132,5.1045283 C2.54745283,5.1045283 1.77820755,4.32056604 1.77820755,3.24849057 C1.77820755,2.39066038 2.54745283,1.60867925 3.48481132,1.60867925 C3.84962264,1.60867925 4.18811321,1.72669811 4.46603774,1.92226415 L5.4540566,0.655754717 C4.88830189,0.263773585 4.19858491,0.0418867925 3.48481132,0.0418867925 C1.74622642,0.0418867925 0.145188679,1.36018868 0.145188679,3.24084906" id="Fill-41" fill="url(#linearGradient-11)" mask="url(#mask-10)"></path>
                    </g>
                    <g id="Group-46" transform="translate(58.301887, 76.016604)">
                        <mask id="mask-13" fill="white">
                            <use xlink:href="#path-12"></use>
                        </mask>
                        <g id="Clip-45"></g>
                        <path d="M0.281603774,3.24084906 C0.281603774,5.25141509 1.68339623,6.67132075 3.6209434,6.67132075 C4.30160377,6.67132075 4.91632075,6.49641509 5.42773585,6.18169811 L4.57160377,4.79858491 C4.29990566,4.99330189 3.97216981,5.1045283 3.6209434,5.1045283 C2.68386792,5.1045283 1.91433962,4.32056604 1.91433962,3.24849057 C1.91433962,2.39066038 2.68386792,1.60867925 3.6209434,1.60867925 C3.98632075,1.60867925 4.3245283,1.72669811 4.60273585,1.92226415 L5.5904717,0.655754717 C5.02443396,0.263773585 4.33443396,0.0418867925 3.6209434,0.0418867925 C1.88264151,0.0418867925 0.281603774,1.36018868 0.281603774,3.24084906" id="Fill-44" fill="url(#linearGradient-14)" mask="url(#mask-13)"></path>
                    </g>
                    <g id="Group-49" transform="translate(103.867925, 76.016604)">
                        <mask id="mask-16" fill="white">
                            <use xlink:href="#path-15"></use>
                        </mask>
                        <g id="Clip-48"></g>
                        <path d="M0.180283019,3.24084906 C0.180283019,5.25141509 1.58207547,6.67132075 3.52018868,6.67132075 C4.20141509,6.67132075 4.815,6.49641509 5.32641509,6.18169811 L4.47141509,4.79858491 C4.19943396,4.99330189 3.87198113,5.1045283 3.52018868,5.1045283 C2.58339623,5.1045283 1.81386792,4.32056604 1.81386792,3.24849057 C1.81386792,2.39066038 2.58339623,1.60867925 3.52018868,1.60867925 C3.885,1.60867925 4.22320755,1.72669811 4.50113208,1.92226415 L5.48886792,0.655754717 C4.92396226,0.263773585 4.23311321,0.0418867925 3.52018868,0.0418867925 C1.78132075,0.0418867925 0.180283019,1.36018868 0.180283019,3.24084906" id="Fill-47" fill="url(#linearGradient-17)" mask="url(#mask-16)"></path>
                    </g>
                    <g id="Group-52" transform="translate(18.113208, 76.016604)">
                        <mask id="mask-19" fill="white">
                            <use xlink:href="#path-18"></use>
                        </mask>
                        <g id="Clip-51"></g>
                        <polygon id="Fill-50" fill="url(#linearGradient-20)" mask="url(#mask-19)" points="0.235188679 0.268301887 0.235188679 6.48566038 3.68660377 6.48566038 3.68660377 5.11613208 1.8045283 5.11613208 1.8045283 0.268301887"></polygon>
                    </g>
                    <g id="Group-55" transform="translate(22.641509, 76.016604)">
                        <mask id="mask-22" fill="white">
                            <use xlink:href="#path-21"></use>
                        </mask>
                        <g id="Clip-54"></g>
                        <polygon id="Fill-53" fill="url(#linearGradient-23)" mask="url(#mask-22)" points="0.0396226415 0.268301887 0.0396226415 6.48566038 3.49216981 6.48566038 3.49216981 5.11613208 1.61009434 5.11613208 1.61009434 0.268301887"></polygon>
                    </g>
                    <g id="Group-58" transform="translate(31.415094, 76.016604)">
                        <mask id="mask-25" fill="white">
                            <use xlink:href="#path-24"></use>
                        </mask>
                        <g id="Clip-57"></g>
                        <path d="M0.204056604,3.41009434 C0.204056604,5.36349057 1.52575472,6.69198113 3.42424528,6.69198113 C4.43377358,6.69198113 5.32330189,6.32066038 5.9159434,5.47075472 C6.45198113,4.69669811 6.51679245,3.92122642 6.53264151,3.01443396 L3.41632075,3.01443396 L3.41632075,4.28377358 L4.69839623,4.28377358 C4.63358491,5.00122642 4.11311321,5.36349057 3.43216981,5.36349057 C2.39915094,5.36349057 1.83792453,4.38311321 1.83792453,3.41830189 C1.83792453,2.4704717 2.37537736,1.45528302 3.40754717,1.45528302 C4.04037736,1.45528302 4.49858491,1.85150943 4.71396226,2.44528302 L6.20377358,1.80198113 C5.68301887,0.63990566 4.72301887,0.0628301887 3.48,0.0628301887 C1.53339623,0.0628301887 0.204056604,1.39018868 0.204056604,3.41009434" id="Fill-56" fill="url(#linearGradient-26)" mask="url(#mask-25)"></path>
                    </g>
                    <polygon id="Fill-59" fill="url(#linearGradient-27)" points="38.7911321 82.5022642 40.3618868 82.5022642 40.3618868 76.2849057 38.7911321 76.2849057"></polygon>
                    <g id="Group-63" transform="translate(40.754717, 76.016604)">
                        <mask id="mask-29" fill="white">
                            <use xlink:href="#path-28"></use>
                        </mask>
                        <g id="Clip-62"></g>
                        <path d="M2.29132075,0.268301887 L0.109245283,6.48566038 L1.67603774,6.48566038 L2.06603774,5.40537736 L4.09896226,5.40537736 L4.46632075,6.48566038 L6.0404717,6.48566038 L3.90226415,0.268301887 L2.29132075,0.268301887 Z M3.08235849,2.19 L3.09735849,2.19 L3.69990566,4.16858491 L2.47273585,4.16858491 L3.08235849,2.19 Z" id="Fill-61" fill="url(#linearGradient-30)" mask="url(#mask-29)"></path>
                    </g>
                    <g id="Group-66" transform="translate(46.132075, 76.016604)">
                        <mask id="mask-32" fill="white">
                            <use xlink:href="#path-31"></use>
                        </mask>
                        <g id="Clip-65"></g>
                        <polygon id="Fill-64" fill="url(#linearGradient-33)" mask="url(#mask-32)" points="0.230377358 0.268301887 0.230377358 1.63726415 1.52886792 1.63726415 1.52886792 6.48566038 3.09820755 6.48566038 3.09820755 1.63726415 4.39641509 1.63726415 4.39641509 0.268301887"></polygon>
                    </g>
                    <g id="Group-69" transform="translate(77.830189, 76.016604)">
                        <mask id="mask-35" fill="white">
                            <use xlink:href="#path-34"></use>
                        </mask>
                        <g id="Clip-68"></g>
                        <polygon id="Fill-67" fill="url(#linearGradient-36)" mask="url(#mask-35)" points="0.180566038 0.268301887 0.180566038 6.48566038 1.75132075 6.48566038 1.75132075 4.0440566 3.47235849 4.0440566 3.47235849 2.67679245 1.75132075 2.67679245 1.75132075 1.63726415 3.6495283 1.63726415 3.6495283 0.268301887"></polygon>
                    </g>
                    <g id="Group-72" transform="translate(87.169811, 76.016604)">
                        <mask id="mask-38" fill="white">
                            <use xlink:href="#path-37"></use>
                        </mask>
                        <g id="Clip-71"></g>
                        <path d="M0.24509434,0.268301887 L0.24509434,6.48566038 L1.81443396,6.48566038 L1.81443396,4.09443396 L1.83028302,4.09443396 L3.31216981,6.48566038 L5.26669811,6.48566038 L3.36792453,3.93707547 C4.2254717,3.78141509 4.69018868,3.0390566 4.69018868,2.18150943 C4.69018868,0.854150943 3.78566038,0.268301887 2.59160377,0.268301887 L0.24509434,0.268301887 Z M1.81443396,1.50537736 L1.96726415,1.50537736 C2.47924528,1.50537736 3.05632075,1.60471698 3.05632075,2.28056604 C3.05632075,2.95613208 2.47924528,3.0554717 1.96726415,3.0554717 L1.81443396,3.0554717 L1.81443396,1.50537736 Z" id="Fill-70" fill="url(#linearGradient-39)" mask="url(#mask-38)"></path>
                    </g>
                    <g id="Group-75" transform="translate(92.547170, 76.016604)">
                        <mask id="mask-41" fill="white">
                            <use xlink:href="#path-40"></use>
                        </mask>
                        <g id="Clip-74"></g>
                        <polygon id="Fill-73" fill="url(#linearGradient-42)" mask="url(#mask-41)" points="0.123962264 0.268301887 0.123962264 6.48566038 4.12613208 6.48566038 4.12613208 5.11613208 1.95169811 5.11613208 1.95169811 4.0440566 4.0140566 4.0440566 4.0140566 2.67679245 1.95169811 2.67679245 1.95169811 1.63726415 4.12613208 1.63726415 4.12613208 0.268301887"></polygon>
                    </g>
                    <g id="Group-78" transform="translate(110.094340, 76.016604)">
                        <mask id="mask-44" fill="white">
                            <use xlink:href="#path-43"></use>
                        </mask>
                        <g id="Clip-77"></g>
                        <polygon id="Fill-76" fill="url(#linearGradient-45)" mask="url(#mask-44)" points="0.0288679245 0.268301887 0.0288679245 6.48566038 4.03245283 6.48566038 4.03245283 5.11613208 1.85745283 5.11613208 1.85745283 4.0440566 3.92037736 4.0440566 3.92037736 2.67679245 1.85745283 2.67679245 1.85745283 1.63726415 4.03245283 1.63726415 4.03245283 0.268301887"></polygon>
                    </g>
                    <g id="Group-81" transform="translate(82.075472, 76.016604)">
                        <mask id="mask-47" fill="white">
                            <use xlink:href="#path-46"></use>
                        </mask>
                        <g id="Clip-80"></g>
                        <polygon id="Fill-79" fill="url(#linearGradient-48)" mask="url(#mask-47)" points="0.254716981 0.268301887 0.254716981 6.48566038 4.25716981 6.48566038 4.25716981 5.11613208 2.08358491 5.11613208 2.08358491 4.0440566 4.14481132 4.0440566 4.14481132 2.67679245 2.08358491 2.67679245 2.08358491 1.63726415 4.25716981 1.63726415 4.25716981 0.268301887"></polygon>
                    </g>
                    <g id="Group-84" transform="translate(50.943396, 76.016604)">
                        <mask id="mask-50" fill="white">
                            <use xlink:href="#path-49"></use>
                        </mask>
                        <g id="Clip-83"></g>
                        <polygon id="Fill-82" fill="url(#linearGradient-51)" mask="url(#mask-50)" points="0.233490566 0.268301887 0.233490566 6.48566038 4.23707547 6.48566038 4.23707547 5.11613208 2.06207547 5.11613208 2.06207547 4.0440566 4.125 4.0440566 4.125 2.67679245 2.06207547 2.67679245 2.06207547 1.63726415 4.23707547 1.63726415 4.23707547 0.268301887"></polygon>
                    </g>
                    <g id="Group-87" transform="translate(26.886792, 76.016604)">
                        <mask id="mask-53" fill="white">
                            <use xlink:href="#path-52"></use>
                        </mask>
                        <g id="Clip-86"></g>
                        <polygon id="Fill-85" fill="url(#linearGradient-54)" mask="url(#mask-53)" points="0.127358491 0.268301887 0.127358491 6.48566038 4.12981132 6.48566038 4.12981132 5.11613208 1.9559434 5.11613208 1.9559434 4.0440566 4.01773585 4.0440566 4.01773585 2.67679245 1.9559434 2.67679245 1.9559434 1.63726415 4.12981132 1.63726415 4.12981132 0.268301887"></polygon>
                    </g>
                    <g id="Group-90" transform="translate(97.641509, 76.016604)">
                        <mask id="mask-56" fill="white">
                            <use xlink:href="#path-55"></use>
                        </mask>
                        <g id="Clip-89"></g>
                        <polygon id="Fill-88" fill="url(#linearGradient-57)" mask="url(#mask-56)" points="4.15415094 0.268301887 4.15415094 4.06924528 4.13943396 4.06924528 1.50169811 0.268301887 0.0602830189 0.268301887 0.0602830189 6.48566038 1.50169811 6.48566038 1.50169811 2.67679245 1.51584906 2.67679245 4.15415094 6.48566038 5.59415094 6.48566038 5.59415094 0.268301887"></polygon>
                    </g>
                    <g id="Group-93" transform="translate(71.037736, 76.016604)">
                        <mask id="mask-59" fill="white">
                            <use xlink:href="#path-58"></use>
                        </mask>
                        <g id="Clip-92"></g>
                        <polygon id="Fill-91" fill="url(#linearGradient-60)" mask="url(#mask-59)" points="4.30698113 0.268301887 4.30698113 4.06924528 4.29311321 4.06924528 1.6545283 0.268301887 0.213962264 0.268301887 0.213962264 6.48566038 1.6545283 6.48566038 1.6545283 2.67679245 1.66867925 2.67679245 4.30698113 6.48566038 5.74754717 6.48566038 5.74754717 0.268301887"></polygon>
                    </g>
                    <polygon id="Fill-94" fill="#0A1F3E" points="5.94537736 73.8489623 113.94 73.8489623 113.94 20.8785849 5.94537736 20.8785849"></polygon>
                    <g id="Group-98" transform="translate(9.056604, 28.469434)">
                        <mask id="mask-62" fill="white">
                            <use xlink:href="#path-61"></use>
                        </mask>
                        <g id="Clip-97"></g>
                        <path d="M0.0687735849,15.6192453 C0.0687735849,24.194717 10.4561321,31.1453774 23.2709434,31.1453774 C28.0783019,31.1453774 32.5432075,30.1689623 36.2462264,28.4937736 L28.4833019,20.0374528 C27.0512264,20.7948113 25.2393396,21.2473585 23.2709434,21.2473585 C18.6280189,21.2473585 14.8618868,18.7270755 14.8618868,15.6192453 C14.8618868,12.51 18.6280189,9.99028302 23.2709434,9.99028302 C25.8976415,9.99028302 28.245283,10.7963208 29.7868868,12.0574528 L36.0113208,2.63971698 C32.3530189,1.02849057 27.9772642,0.0914150943 23.2709434,0.0914150943 C10.4561321,0.0914150943 0.0687735849,7.0440566 0.0687735849,15.6192453" id="Fill-96" fill="url(#linearGradient-63)" mask="url(#mask-62)"></path>
                    </g>
                    <g id="Group-101" transform="translate(41.886792, 28.469434)">
                        <mask id="mask-65" fill="white">
                            <use xlink:href="#path-64"></use>
                        </mask>
                        <g id="Clip-100"></g>
                        <path d="M0.191037736,15.6192453 C0.191037736,24.194717 10.5783962,31.1453774 23.3926415,31.1453774 C28.2,31.1453774 32.6654717,30.1689623 36.3682075,28.4937736 L28.605283,20.0374528 C27.1726415,20.7948113 25.3613208,21.2473585 23.3926415,21.2473585 C18.75,21.2473585 14.9835849,18.7270755 14.9835849,15.6192453 C14.9835849,12.51 18.75,9.99028302 23.3926415,9.99028302 C26.0193396,9.99028302 28.3672642,10.7963208 29.9085849,12.0574528 L36.1327358,2.63971698 C32.474717,1.02849057 28.0989623,0.0914150943 23.3926415,0.0914150943 C10.5783962,0.0914150943 0.191037736,7.0440566 0.191037736,15.6192453" id="Fill-99" fill="url(#linearGradient-66)" mask="url(#mask-65)"></path>
                    </g>
                    <g id="Group-104" transform="translate(75.283019, 28.469434)">
                        <mask id="mask-68" fill="white">
                            <use xlink:href="#path-67"></use>
                        </mask>
                        <g id="Clip-103"></g>
                        <path d="M0.0851886792,15.6192453 C0.0851886792,24.194717 10.4725472,31.1453774 23.2867925,31.1453774 C28.094717,31.1453774 32.5596226,30.1689623 36.2623585,28.4937736 L28.499717,20.0374528 C27.0670755,20.7948113 25.2554717,21.2473585 23.2867925,21.2473585 C18.6441509,21.2473585 14.8780189,18.7270755 14.8780189,15.6192453 C14.8780189,12.51 18.6441509,9.99028302 23.2867925,9.99028302 C25.9134906,9.99028302 28.2611321,10.7963208 29.8027358,12.0574528 L36.0268868,2.63971698 C32.3691509,1.02849057 27.9933962,0.0914150943 23.2867925,0.0914150943 C10.4725472,0.0914150943 0.0851886792,7.0440566 0.0851886792,15.6192453" id="Fill-102" fill="url(#linearGradient-63)" mask="url(#mask-68)"></path>
                    </g>
                    <g id="Group-131" transform="translate(5.094340, 28.469434)">
                        <polygon id="Fill-105" fill="#FEFEFE" points="0.169160377 45.3099623 13.7430283 40.6743962 23.2218962 34.640434 27.8438774 36.8561887 29.219066 36.0541132 34.8505755 39.1973208 58.2995377 25.8082642 75.3519906 36.5924151 75.8769906 36.2270377 80.8858585 38.6414717 86.2530283 35.5500566 92.9450094 40.1233585 96.1267075 38.736566 111.113972 46.0959057 111.113972 47.1028868 0.146518868 47.1028868"></polygon>
                        <polygon id="Fill-107" fill="#CED3D7" points="101.188104 43.3006415 103.892349 44.9526226 105.522255 44.9628113 108.879425 44.988283 96.0878208 38.6908302 99.9068774 44.9517736"></polygon>
                        <polygon id="Fill-109" fill="#CED3D7" points="86.2530566 35.5499434 92.9450377 40.1232453 99.9067358 44.9518302 99.5733396 45.3718302 94.7971132 43.5005094 93.7691887 44.2417358 90.5719245 41.7876792 90.0118302 44.9356981"></polygon>
                        <polygon id="Fill-111" fill="#CED3D7" points="80.8859434 38.6413302 75.8770755 36.2271792 75.3280189 36.5568962 58.2993396 25.8081226 61.4148113 40.0923679 63.225566 39.2874623 65.7478302 42.6120849 67.4900943 41.563783 71.0484906 44.5711415"></polygon>
                        <polygon id="Fill-113" fill="#CED3D7" points="23.2219528 34.6403774 28.1003491 45.0786792 29.0430849 42.9246226 32.2785566 45.0786792 32.6113868 41.8783019 37.9811038 45.1154717 40.9355377 45.0659434 45.1267642 45.0786792 29.2188396 36.0540566 27.843934 36.8561321"></polygon>
                        <path d="M32.4366509,20.0454057 C32.4366509,20.0454057 29.2906132,21.9461604 24.0740094,20.8143679 C24.0740094,20.8143679 18.397783,19.4533302 18.8820283,14.9196509 C18.8820283,14.9196509 17.4963679,19.9327642 22.7891038,21.8889906 C22.7891038,21.8889906 27.3904245,23.771066 31.5836321,21.9286132 L32.4366509,20.0454057 Z" id="Fill-115" fill="#FEFEFE"></path>
                        <path d="M39.9637358,2.64761321 C39.9637358,2.64761321 33.1370377,-0.752009434 23.271,0.223273585 C23.271,0.223273585 10.6418491,1.24666981 5.48750943,10.0117642 C5.48750943,10.0117642 1.40609434,16.1473302 6.69515094,22.8809151 C6.69515094,22.8809151 3.46081132,16.4068585 7.00958491,10.4405377 C7.00958491,10.4405377 10.7143019,3.06251887 23.466566,1.50251887 C23.466566,1.50251887 30.455717,0.382896226 37.5920377,3.30733019 L39.9637358,2.64761321 Z" id="Fill-117" fill="#FEFEFE"></path>
                        <path d="M65.407783,20.0454057 C65.407783,20.0454057 62.2617453,21.9461604 57.0454245,20.8143679 C57.0454245,20.8143679 51.3691981,19.4533302 51.8534434,14.9196509 C51.8534434,14.9196509 50.467783,19.9327642 55.7608019,21.8889906 C55.7608019,21.8889906 60.3618396,23.771066 64.5547642,21.9286132 L65.407783,20.0454057 Z" id="Fill-119" fill="#FEFEFE"></path>
                        <path d="M72.9351509,2.64761321 C72.9351509,2.64761321 66.1084528,-0.752009434 56.2421321,0.223273585 C56.2421321,0.223273585 43.6132642,1.24666981 38.4586415,10.0117642 C38.4586415,10.0117642 34.3775094,16.1473302 39.666283,22.8809151 C39.666283,22.8809151 36.4322264,16.4068585 39.981,10.4405377 C39.981,10.4405377 43.685717,3.06251887 56.4379811,1.50251887 C56.4379811,1.50251887 63.4271321,0.382896226 70.5637358,3.30733019 L72.9351509,2.64761321 Z" id="Fill-121" fill="#FEFEFE"></path>
                        <path d="M98.6843491,20.0454057 C98.6843491,20.0454057 95.5383113,21.9461604 90.3219906,20.8143679 C90.3219906,20.8143679 84.6457642,19.4533302 85.1302925,14.9196509 C85.1302925,14.9196509 83.7446321,19.9327642 89.0373679,21.8889906 C89.0373679,21.8889906 93.6384057,23.771066 97.8313302,21.9286132 L98.6843491,20.0454057 Z" id="Fill-123" fill="#FEFEFE"></path>
                        <path d="M106.211689,2.64761321 C106.211689,2.64761321 99.3852736,-0.752009434 89.5186698,0.223273585 C89.5186698,0.223273585 76.8898019,1.24666981 71.7351792,10.0117642 C71.7351792,10.0117642 67.6540472,16.1473302 72.9428208,22.8809151 C72.9428208,22.8809151 69.7087642,16.4068585 73.2575377,10.4405377 C73.2575377,10.4405377 76.9625377,3.06251887 89.7145189,1.50251887 C89.7145189,1.50251887 96.7036698,0.382896226 103.840274,3.30733019 L106.211689,2.64761321 Z" id="Fill-125" fill="#FEFEFE"></path>
                        <path d="M110.44067,45.6507453 C109.836708,45.6507453 109.34567,46.141783 109.34567,46.7457453 C109.34567,47.3497075 109.836708,47.8407453 110.44067,47.8407453 C111.044349,47.8407453 111.53567,47.3497075 111.53567,46.7457453 C111.53567,46.141783 111.044349,45.6507453 110.44067,45.6507453 M110.44067,48.1200849 C109.682745,48.1200849 109.066613,47.5033868 109.066613,46.7457453 C109.066613,45.9881038 109.682745,45.3719717 110.44067,45.3719717 C111.198311,45.3719717 111.814443,45.9881038 111.814443,46.7457453 C111.814443,47.5033868 111.198311,48.1200849 110.44067,48.1200849" id="Fill-127" fill="#020303"></path>
                        <path d="M110.24666,46.866 L110.24666,47.3216604 L109.935906,47.3216604 L109.935906,46.1174151 L110.410245,46.1174151 C110.569302,46.1174151 110.684774,46.1443019 110.758358,46.1980755 C110.833075,46.250434 110.869302,46.3347736 110.869302,46.4502453 C110.869302,46.5297736 110.850623,46.5951509 110.812132,46.6466604 C110.773358,46.6967547 110.716189,46.7352453 110.638075,46.7587358 C110.681094,46.7692075 110.718736,46.791283 110.752415,46.8252453 C110.786377,46.8592075 110.820057,46.910434 110.854019,46.9806226 L111.023547,47.3216604 L110.692981,47.3216604 L110.545811,47.0227925 C110.516377,46.9630755 110.486377,46.9209057 110.455811,46.8999623 C110.425528,46.8778868 110.384491,46.866 110.334396,46.866 L110.24666,46.866 M110.377698,46.6523208 C110.44166,46.6523208 110.488358,46.6395849 110.516377,46.6149623 C110.544679,46.5914717 110.559679,46.5521321 110.559679,46.4958113 C110.559679,46.4409057 110.544679,46.4024151 110.516377,46.3777925 C110.488358,46.3543019 110.44166,46.3426981 110.377698,46.3426981 L110.24666,46.3426981 L110.24666,46.6523208 L110.377698,46.6523208" id="Fill-129" fill="#020303"></path>
                    </g>
                </g>
            </g>
        </g>
    </g>
</svg>