<?xml version="1.0" encoding="UTF-8"?>
<!-- Generator: Adobe Illustrator 21.1.0, SVG Export Plug-In . SVG Version: 6.00 Build 0)  -->
<svg version="1.1" id="Calque_1" xmlns="http://www.w3.org/2000/svg" xmlns:xlink="http://www.w3.org/1999/xlink" x="0px" y="0px" viewBox="0 0 100 100" style="enable-background:new 0 0 100 100;" xml:space="preserve">
<style type="text/css">
	.st0{fill-rule:evenodd;clip-rule:evenodd;fill:#FFFFFF;stroke:#FFFFFF;stroke-width:0.5;stroke-miterlimit:10;}
</style>
<path class="st0" d="M31,29.6l10.9,0v-3.1l0,0c0-0.3-0.1-0.6-0.3-0.8l0,0c-0.2-0.2-0.4-0.3-0.7-0.3l-8.7,0c-0.3,0-0.6,0.1-0.8,0.3  l0,0c-0.2,0.2-0.3,0.5-0.3,0.8L31,29.6L31,29.6z M17.9,70.4h-0.5c-0.7,0-1.3-0.3-1.8-0.7c0,0,0,0,0,0c-0.4-0.4-0.7-1.1-0.7-1.7V38.4  c0-0.7,0.3-1.3,0.7-1.8l0,0c0.5-0.5,1.1-0.7,1.8-0.7h0.5v-2c0-1.2,0.5-2.2,1.3-3v0l0,0l0,0c0.8-0.8,1.8-1.2,3-1.2h7.4l0-3.1  c0-0.7,0.3-1.3,0.7-1.8l0,0l0,0c0.5-0.4,1.1-0.7,1.8-0.7l8.7,0c0.7,0,1.3,0.3,1.7,0.7l0,0c0.5,0.5,0.7,1.1,0.7,1.8h0l0,3.1h37.2  c1.2,0,2.3,0.5,3,1.3c0.8,0.8,1.3,1.8,1.3,3v38.5c0,1.2-0.5,2.2-1.3,3l0,0c-0.8,0.8-1.8,1.3-3,1.3H22.2c-1.2,0-2.2-0.5-3-1.3  c-0.8-0.8-1.3-1.8-1.3-3V70.4L17.9,70.4z M17.4,69h1.2h9.8c0.3,0,0.6-0.1,0.8-0.3c0.2-0.2,0.3-0.5,0.3-0.8V38.4  c0-0.3-0.1-0.6-0.3-0.8l0,0l0,0l0,0l0,0l0,0l0,0l0,0l0,0l0,0v0l0,0v0l0,0l0,0l0,0l0,0l0,0l0,0l0,0l0,0l0,0l0,0l0,0l0,0l0,0l0,0l0,0  l0,0l0,0l0,0l0,0l0,0l0,0l0,0l0,0l0,0l0,0l0,0l0,0l0,0l0,0l0,0l0,0l0,0l0,0l0,0l0,0l0,0h0l0,0h0l0,0l0,0l0,0l0,0l0,0l0,0l0,0l0,0h0  l0,0l0,0l0,0l0,0l0,0h0l0,0h0l0,0h0l0,0h0l0,0l0,0h0l0,0l0,0l0,0l0,0l0,0l0,0l0,0l0,0l0,0l0,0l0,0l0,0h0h0v0l0,0h0l0,0h0l0,0h0h0  l0,0h0h0l0,0h0l0,0h0h0h0h0l0,0h0h0h0h0l0,0h0h0h0h0h0h0h0l0,0h0l0,0h0h-9.8h-1.2c-0.3,0-0.6,0.1-0.8,0.3c-0.2,0.2-0.3,0.5-0.3,0.8  v29.5c0,0.3,0.1,0.5,0.3,0.7l0,0C16.9,68.8,17.1,69,17.4,69L17.4,69z M22.2,75.3h58.3c0.8,0,1.5-0.3,2-0.8v0c0.5-0.5,0.8-1.2,0.8-2  V33.9c0-0.8-0.3-1.5-0.8-2c-0.5-0.5-1.2-0.8-2-0.8H22.2c-0.8,0-1.5,0.3-2,0.8l0,0c-0.5,0.5-0.8,1.2-0.8,2v2h9l0,0h0h0l0,0h0h0l0,0h0  h0h0l0,0l0,0h0h0l0,0h0l0,0l0,0l0,0h0l0,0h0l0,0l0,0l0,0h0l0,0l0,0l0,0l0,0l0,0l0,0l0,0l0,0l0,0l0,0h0l0,0l0,0l0,0l0,0l0,0h0l0,0  l0,0l0,0h0l0,0h0l0,0l0,0l0,0h0l0,0l0,0l0,0h0l0,0h0l0,0l0,0l0,0l0,0l0,0h0l0,0h0l0,0h0l0,0h0l0,0l0,0l0,0l0,0l0,0l0,0l0,0l0,0l0,0  l0,0l0,0l0,0l0,0l0,0l0,0l0,0l0,0l0,0l0,0l0,0l0,0l0,0l0,0l0,0l0,0l0,0l0,0l0,0l0,0l0,0l0,0l0,0l0,0l0,0l0,0l0,0l0,0l0,0l0,0l0,0  l0,0l0,0l0,0l0,0l0,0v0l0,0h0l0,0l0,0l0,0l0,0l0,0c0,0,0,0,0,0c0.5,0.5,0.7,1.1,0.7,1.8v29.5c0,0.7-0.3,1.3-0.7,1.8  c-0.4,0.5-1.1,0.7-1.8,0.7h-9v2c0,0.8,0.3,1.5,0.8,2C20.7,74.9,21.4,75.3,22.2,75.3L22.2,75.3z M60.1,39.9c-3.7,0-7,1.5-9.4,3.9  c-2.4,2.4-3.9,5.7-3.9,9.4c0,3.7,1.5,7,3.9,9.4c2.4,2.4,5.7,3.9,9.4,3.9s7-1.5,9.4-3.9c2.4-2.4,3.9-5.7,3.9-9.4c0-3.7-1.5-7-3.9-9.4  C67.1,41.3,63.8,39.9,60.1,39.9L60.1,39.9z M49.7,42.7c-2.7,2.7-4.3,6.3-4.3,10.4c0,4.1,1.6,7.8,4.3,10.4c2.7,2.7,6.3,4.3,10.4,4.3  c4.1,0,7.8-1.6,10.4-4.3c2.7-2.7,4.3-6.3,4.3-10.4c0-4.1-1.6-7.8-4.3-10.4c-2.7-2.7-6.3-4.3-10.4-4.3C56,38.4,52.3,40.1,49.7,42.7  L49.7,42.7z M60.1,35.4L60.1,35.4L60.1,35.4c-4.9,0-9.3,2-12.5,5.2c-3.2,3.2-5.2,7.6-5.2,12.5l0,0v0l0,0l0,0c0,4.9,2,9.3,5.2,12.5  c3.2,3.2,7.6,5.2,12.5,5.2l0,0h0l0,0l0,0c4.9,0,9.3-2,12.5-5.2c3.2-3.2,5.2-7.6,5.2-12.5h0v0h0c0-4.9-2-9.3-5.2-12.5  C69.4,37.4,65,35.4,60.1,35.4L60.1,35.4L60.1,35.4z M60.1,34c-5.3,0-10.1,2.1-13.6,5.6c-3.5,3.5-5.6,8.3-5.6,13.5h0v0l0,0h0  c0,5.3,2.1,10.1,5.6,13.6c3.5,3.5,8.3,5.6,13.5,5.6v0h0l0,0v0c5.3,0,10.1-2.1,13.5-5.6c3.5-3.5,5.6-8.3,5.6-13.5l0,0v0l0,0  c0-5.3-2.1-10.1-5.6-13.5C70.2,36.1,65.4,34,60.1,34L60.1,34L60.1,34L60.1,34z"/>
</svg>