<?xml version="1.0" encoding="UTF-8"?>
<svg xmlns="http://www.w3.org/2000/svg" width="16" height="16">
  <g stroke="#ee9209" stroke-linecap="round" stroke-linejoin="round" fill="none">
    <path d="M13.699 6.09c0 2.395-1.942 4.337-4.337 4.337-2.395 0-4.337-1.942-4.337-4.337 0-2.395 1.942-4.337 4.337-4.337 2.395 0 4.337 1.942 4.337 4.337z" opacity=".99" stroke-width="1.930932"/>
    <path d="M6.306 9.88l-3.97 4.569" stroke-width="1.932"/>
  </g>
</svg>
