<?xml version="1.0" encoding="UTF-8"?>
<svg xmlns="http://www.w3.org/2000/svg" width="32" height="32">
  <g>
    <path d="M1.532-.011l14.121 21.355 14.923-21.355z" fill="#f1f8fb"/>
    <path d="M.843-.549l15.164 22.667 15.164-22.661" stroke="#2c6faf" stroke-width="2.0001" fill="none"/>
  </g>
</svg>
