<svg width="26" height="26" xmlns="http://www.w3.org/2000/svg">
  <path fill="none" d="M-1-1h582v402H-1z"/>
  <g>
    <path d="M-1-1h28v28H-1V-1z" fill="none"/>
    <circle stroke-miterlimit="10" stroke-width="1.8" fill="none" r="11" cy="13" cx="13" stroke="#747474"/>
    <path fill="#747474" d="M13 17.416l-5.704-7.333h2.037L13 14.891l3.667-4.808h2.037L13 17.417v-.001z"/>
  </g>
</svg>
