<svg id="Layer_1" xmlns="http://www.w3.org/2000/svg" width="17" height="23" viewBox="0 0 17 23">
  <path stroke="#FFFFFF" fill="none" stroke-width="2" d="M15 8c0-3.9-3.1-7-7-7S1 4.1 1 8s3.1 7 7 7 7-3.1 7-7zm1 14l-4.5-7.2"/>
</svg>
