<svg width="32" height="26" viewBox="0 0 32 26" xmlns="http://www.w3.org/2000/svg">
  <title>
    youtube
  </title>
  <path d="M25.734.078H5.94C2.67.078 0 2.928 0 6.408v12.66c0 3.482 2.672 6.33 5.94 6.33h19.794c3.266 0 5.94-2.848 5.94-6.33V6.408c0-3.48-2.674-6.33-5.94-6.33zm-13.857 21.1V4.298l9.898 8.44-9.898 8.44z" fill="#616161"/>
</svg>
