<?xml version="1.0" encoding="iso-8859-1"?>
<!-- Generator: Adobe Illustrator 22.1.0, SVG Export Plug-In . SVG Version: 6.00 Build 0)  -->
<svg version="1.1" id="Capa_1" xmlns="http://www.w3.org/2000/svg" xmlns:xlink="http://www.w3.org/1999/xlink" x="0px" y="0px"
	 viewBox="170 360 75 75" style="enable-background:new 170 360 75 75;" xml:space="preserve">
<g transform="translate(0 -1)">
	<path style="fill:#0D88D5;" d="M176.076,409.964c0.642,1.416,1.535,2.705,2.636,3.804l7.482,7.482
		c-0.422,0.447-0.657,1.037-0.658,1.651v9.711c0.001,1.34,1.088,2.426,2.428,2.428h13.353c1.34-0.001,2.426-1.087,2.428-2.428
		v-8.497h7.283v8.497c0.001,1.34,1.087,2.426,2.428,2.428h13.353c1.34-0.001,2.426-1.087,2.428-2.428v-9.711
		c-0.001-0.614-0.237-1.205-0.658-1.651l7.482-7.482c1.101-1.099,1.994-2.388,2.636-3.804l4.757-10.466
		c0.577-1.268,0.428-2.748-0.39-3.875s-2.179-1.728-3.563-1.573c-1.384,0.155-2.578,1.042-3.127,2.322l-1.067,2.488
		c-0.782-12.535-8.022-18.82-11.268-21.023c2.666-2.582,3.499-6.523,2.104-9.963c-1.395-3.439-4.738-5.688-8.449-5.683
		s-7.048,2.262-8.434,5.705s-0.543,7.382,2.13,9.957c-1.443,0.982-2.773,2.121-3.966,3.395c-1.205-1.287-2.549-2.435-4.008-3.423
		c2.663-2.587,3.488-6.531,2.087-9.968c-1.401-3.438-4.749-5.68-8.462-5.668c-3.712,0.012-7.045,2.277-8.424,5.723
		c-1.379,3.447-0.527,7.385,2.152,9.954c-3.282,2.24-10.505,8.571-11.232,21.155l-1.136-2.65c-0.548-1.281-1.742-2.168-3.127-2.324
		s-2.746,0.445-3.564,1.573c-0.818,1.128-0.967,2.608-0.39,3.876L176.076,409.964z M187.963,432.612v-9.711h13.353l0.002,9.711
		H187.963z M201.268,417.069c0.024-0.077,0.04-0.157,0.048-0.238c0-0.073,0.039-7.322,3.365-11.368
		c0.276-0.335,0.353-0.792,0.201-1.199s-0.51-0.701-0.939-0.772c-0.428-0.071-0.862,0.092-1.137,0.428
		c-1.68,2.233-2.811,4.829-3.303,7.58c-0.255-0.431-0.538-0.845-0.848-1.238c-0.299-0.373-0.624-0.726-0.971-1.055
		c0.092-7.214,2.994-10.937,4.497-12.379c3.056,2.392,7.35,2.392,10.407,0c1.504,1.442,4.406,5.165,4.497,12.379
		c-0.347,0.329-0.671,0.682-0.971,1.055c-0.31,0.394-0.593,0.807-0.848,1.238c-0.492-2.751-1.623-5.347-3.303-7.58
		c-0.426-0.517-1.19-0.59-1.707-0.165s-0.592,1.189-0.168,1.707c3.316,4.033,3.366,11.296,3.366,11.369
		c0.008,0.08,0.024,0.159,0.048,0.236c-0.031,0.378-0.048,0.76-0.048,1.145v2.259c-0.863,0.003-1.66,0.465-2.09,1.214h-7.959
		c-0.43-0.749-1.227-1.211-2.09-1.214v-2.259C201.316,417.829,201.299,417.447,201.268,417.069z M207.385,384.057
		c3.352,0,6.069,2.717,6.069,6.069s-2.717,6.069-6.069,6.069c-3.352,0-6.069-2.717-6.069-6.069
		C201.32,386.776,204.035,384.06,207.385,384.057z M226.808,432.612h-13.353v-9.711h13.353V432.612z M238.603,397.328
		c0.227-0.531,0.748-0.875,1.325-0.874c0.491,0,0.947,0.249,1.213,0.662c0.266,0.412,0.303,0.932,0.1,1.378l-4.757,10.466
		c-0.523,1.151-1.248,2.198-2.143,3.092l-8.422,8.422h-10.038v-2.259c-0.037-2.324,0.713-4.591,2.128-6.435
		c0.742-0.989,1.756-1.741,2.918-2.164c2.387-0.938,4.601-2.266,6.552-3.931c0.059-0.039,0.115-0.083,0.166-0.132
		c0.337-0.269,0.679-0.548,1.027-0.841c1.134-0.942,2.77-0.974,3.939-0.076c-0.44,0.659-0.943,1.273-1.504,1.833l-5.545,5.545
		c-0.307,0.307-0.426,0.754-0.314,1.172c0.112,0.419,0.439,0.746,0.858,0.858c0.419,0.112,0.866-0.008,1.172-0.314l5.545-5.545
		c1.3-1.298,2.339-2.833,3.061-4.522L238.603,397.328z M211.027,371.311c0-3.687,2.989-6.676,6.676-6.676
		c3.687,0,6.676,2.989,6.676,6.676c0,3.687-2.989,6.676-6.676,6.676C214.018,377.983,211.031,374.996,211.027,371.311z
		 M217.703,380.415c1.478,0.001,2.934-0.361,4.241-1.054c2.315,1.33,11.411,7.541,10.992,22.684
		c-1.498-0.652-3.205-0.62-4.677,0.088c-0.043-4.7-0.981-9.349-2.764-13.698c-0.17-0.399-0.541-0.677-0.972-0.729
		s-0.857,0.131-1.117,0.479c-0.26,0.348-0.314,0.808-0.142,1.207c0.034,0.08,3.319,7.875,2.406,14.624
		c-1.651,1.383-3.51,2.495-5.509,3.297c-0.241,0.081-0.471,0.194-0.704,0.299c-0.467-7.013-3.394-10.83-5.182-12.531
		c1.585-2.192,2.028-5.01,1.193-7.582c-0.836-2.573-2.85-4.592-5.42-5.435c1.054-1.016,2.216-1.913,3.464-2.678
		C214.805,380.061,216.244,380.415,217.703,380.415z M190.391,371.311c0-3.687,2.989-6.676,6.676-6.676
		c3.687,0,6.676,2.989,6.676,6.676c0,3.687-2.989,6.676-6.676,6.676C193.382,377.983,190.395,374.996,190.391,371.311z
		 M192.87,379.381c2.641,1.384,5.795,1.378,8.43-0.017c1.252,0.764,2.418,1.662,3.476,2.678c-2.586,0.829-4.617,2.847-5.464,5.427
		s-0.407,5.409,1.184,7.61c-1.788,1.701-4.715,5.519-5.181,12.532c-0.233-0.105-0.463-0.218-0.705-0.299
		c-1.998-0.802-3.857-1.915-5.508-3.297c-0.91-6.735,2.372-14.545,2.406-14.625c0.261-0.616-0.025-1.326-0.64-1.589
		c-0.615-0.263-1.326,0.02-1.592,0.633c-1.782,4.349-2.72,8.998-2.764,13.698c-1.448-0.691-3.124-0.726-4.599-0.096
		C181.499,386.975,190.5,380.753,192.87,379.381z M173.63,397.115c0.262-0.416,0.721-0.666,1.213-0.661
		c0.577,0,1.099,0.344,1.326,0.875l2.715,6.334c0.722,1.689,1.761,3.224,3.061,4.522l5.545,5.545
		c0.307,0.307,0.754,0.426,1.172,0.314c0.419-0.112,0.746-0.439,0.858-0.858c0.112-0.419-0.008-0.866-0.314-1.172l-5.545-5.545
		c-0.557-0.557-1.058-1.167-1.496-1.822c1.165-0.899,2.797-0.872,3.931,0.065c0.348,0.293,0.69,0.571,1.027,0.841
		c0.052,0.049,0.108,0.094,0.168,0.134c1.951,1.664,4.164,2.992,6.551,3.93c1.162,0.423,2.176,1.175,2.919,2.164
		c1.415,1.843,2.166,4.111,2.128,6.435v2.259h-10.038l-8.422-8.422c-0.894-0.893-1.62-1.941-2.143-3.092l-4.757-10.466
		C173.321,398.048,173.36,397.526,173.63,397.115L173.63,397.115z"/>
	<path style="fill:#0D88D5;" d="M198.888,426.542h-1.214c-0.67,0-1.214,0.543-1.214,1.214s0.543,1.214,1.214,1.214h1.214
		c0.67,0,1.214-0.543,1.214-1.214S199.559,426.542,198.888,426.542z"/>
	<path style="fill:#0D88D5;" d="M217.097,426.542h-1.214c-0.67,0-1.214,0.543-1.214,1.214s0.543,1.214,1.214,1.214h1.214
		c0.67,0,1.214-0.543,1.214-1.214S217.767,426.542,217.097,426.542z"/>
</g>
</svg>
