<?xml version="1.0" encoding="UTF-8"?>
<svg width="22px" height="13px" viewBox="0 0 22 13" version="1.1" xmlns="http://www.w3.org/2000/svg" xmlns:xlink="http://www.w3.org/1999/xlink">
    <!-- Generator: Sketch 51.1 (57501) - http://www.bohemiancoding.com/sketch -->
    <title>Shape</title>
    <desc>Created with Sketch.</desc>
    <defs></defs>
    <g id="degraafschap.nl" stroke="none" stroke-width="1" fill="none" fill-rule="evenodd">
        <g id="Home" transform="translate(-1023.000000, -866.000000)" fill="#7A8289" fill-rule="nonzero">
            <g id="foto-active" transform="translate(400.000000, 134.000000)">
                <path d="M623,738.502791 C623.001846,738.743734 623.095845,738.97453 623.262167,739.146492 L623.267667,739.157654 L628.767667,744.73888 C629.127347,745.091402 629.699078,745.08636 630.052667,744.727549 C630.406256,744.368738 630.411225,743.788564 630.063833,743.423572 L626.1295,739.429274 L644.083333,739.429274 C644.589594,739.429274 645,739.012807 645,738.49907 C645,737.985332 644.589594,737.568865 644.083333,737.568865 L626.1295,737.568865 L630.063833,733.576428 C630.411225,733.211436 630.406256,732.631262 630.052667,732.272451 C629.699078,731.91364 629.127347,731.908598 628.767667,732.26112 L623.267667,737.842346 L623.262167,737.851648 C623.180562,737.935553 623.115806,738.034754 623.0715,738.143732 C623.02431,738.256077 622.99999,738.376944 623,738.49907 L623,738.502791 Z" id="Shape" transform="translate(634.000000, 738.500000) scale(-1, 1) rotate(-180.000000) translate(-634.000000, -738.500000) "></path>
            </g>
        </g>
    </g>
</svg>