<?xml version="1.0" encoding="UTF-8"?>
<svg width="10px" height="22px" viewBox="0 0 10 22" version="1.1" xmlns="http://www.w3.org/2000/svg" xmlns:xlink="http://www.w3.org/1999/xlink">
    <!-- Generator: Sketch 51.1 (57501) - http://www.bohemiancoding.com/sketch -->
    <title>fb</title>
    <desc>Created with Sketch.</desc>
    <defs></defs>
    <g id="degraafschap.nl" stroke="none" stroke-width="1" fill="none" fill-rule="evenodd">
        <g id="Home" transform="translate(-1356.000000, -6049.000000)" fill="#119BD7">
            <g id="footer" transform="translate(0.000000, 5148.000000)">
                <g id="volg-ons" transform="translate(1320.000000, 840.000000)">
                    <path d="M45.8800601,67.8841298 L42.5139466,67.8841298 L42.5139466,65.6770724 C42.5139466,64.8486281 43.0641154,64.6558776 43.4508929,64.6558776 L45.8238944,64.6558776 L45.8238944,61.0114884 L42.5547944,61 C38.9244467,61 38.0998319,63.7176548 38.0998319,65.4549625 L38.0998319,67.8841298 L36,67.8841298 L36,71.6370208 L38.0998319,71.6370208 L38.0998319,82.2600002 L42.5139466,82.2600002 L42.5139466,71.6370208 L45.4932826,71.6370208 L45.8800601,67.8841298 Z" id="fb"></path>
                </g>
            </g>
        </g>
    </g>
</svg>